{
  "shell_port": 38689,
  "iopub_port": 57825,
  "stdin_port": 59971,
  "control_port": 58345,
  "hb_port": 33587,
  "ip": "127.0.0.1",
  "key": "0390b8d1-ecf5494bb0449a8af7fa154f",
  "transport": "tcp",
  "signature_scheme": "hmac-sha256",
  "kernel_name": ""
}