{
  "shell_port": 60475,
  "iopub_port": 41947,
  "stdin_port": 43795,
  "control_port": 42369,
  "hb_port": 33043,
  "ip": "127.0.0.1",
  "key": "4b36f575-032e19c1fc15ddb68116621e",
  "transport": "tcp",
  "signature_scheme": "hmac-sha256",
  "kernel_name": ""
}