{
  "shell_port": 57211,
  "iopub_port": 46947,
  "stdin_port": 33085,
  "control_port": 53363,
  "hb_port": 36731,
  "ip": "127.0.0.1",
  "key": "2fe0e8ac-1ac9bfc352e98c1bd7433c79",
  "transport": "tcp",
  "signature_scheme": "hmac-sha256",
  "kernel_name": ""
}