{
  "shell_port": 40557,
  "iopub_port": 58217,
  "stdin_port": 45895,
  "control_port": 42767,
  "hb_port": 55283,
  "ip": "127.0.0.1",
  "key": "c6c053ed-5c1c956a3b3b48b13a9a6671",
  "transport": "tcp",
  "signature_scheme": "hmac-sha256",
  "kernel_name": ""
}