{
  "shell_port": 52941,
  "iopub_port": 58807,
  "stdin_port": 38939,
  "control_port": 36313,
  "hb_port": 33771,
  "ip": "127.0.0.1",
  "key": "0e23b284-6d01170fe221ebdb9e6088be",
  "transport": "tcp",
  "signature_scheme": "hmac-sha256",
  "kernel_name": ""
}