{
  "base_url": "/user/fei_j-mt15-2021-qblqvoev/",
  "hostname": "0.0.0.0",
  "notebook_dir": "/home/jovyan",
  "password": false,
  "pid": 19,
  "port": 8888,
  "secure": false,
  "sock": "",
  "token": "x-CLdifJRLuYY1DC42jdNA",
  "url": "http://0.0.0.0:8888/user/fei_j-mt15-2021-qblqvoev/"
}